"id,""email"",""phone"""
"__import__.res_partner_1,""example1@bill.edu.pe"",""+51 987123456"""
"__import__.res_partner_2,""example2@bill.edu.pe"",""+51 947247896"""
"__import__.res_partner_3,""example3@bill.edu.pe"",""+51 912356795"""
"__import__.res_partner_4,""example4@bill.edu.pe"",""+51 997121451"""
"__import__.res_partner_5,""example5@bill.edu.pe"",""+51 937123447"""
